forecast_date,target,horizon,q0.025,q0.25,q0.5,q0.75,q0.975
2023-02-15,DAX,1 day,-2.0036030401951797,-0.7367797085587537,-0.008086479641931578,0.6422270967346637,1.8174688240450394
2023-02-15,DAX,2 day,-2.214329021316864,-0.6976571839102753,0.04925094774663956,0.8235078396512268,2.485134934257133
2023-02-15,DAX,5 day,-2.972420943610498,-1.0761772703779005,0.028500821264378175,1.1114911638891984,3.0475058525143837
2023-02-15,DAX,6 day,-3.3262879367572924,-1.2337434785883548,-0.0731615427255534,1.0051112003909173,3.168742389749643
2023-02-15,DAX,7 day,-3.991822798464771,-1.3323901811063987,-0.035989911884502054,1.2854176526315373,3.8977964709030144
2023-02-15,energy,36 hour,56.2948891233157,64.18971219032525,68.1288872403166,71.92340743362224,79.81903982594548
2023-02-15,energy,40 hour,51.98477711537231,58.2360017477673,61.429840779672304,64.80499679225372,70.83604352657032
2023-02-15,energy,44 hour,50.993772830046645,56.581059826825225,59.46339125804954,61.88288330463351,67.42414762849116
2023-02-15,energy,60 hour,52.70953570197035,56.56375894814268,58.53095919360655,60.62926980870936,63.92100839634396
2023-02-15,energy,64 hour,48.01024217201956,51.735168931513556,53.929891699826605,55.90014508496558,59.32841087230779
2023-02-15,energy,68 hour,43.836893781887184,49.502777123795454,52.7022296236159,55.483683610624894,60.890925986315054
2023-02-15,wind,36 hour,,,,,
2023-02-15,wind,48 hour,,,,,
2023-02-15,wind,60 hour,,,,,
2023-02-15,wind,72 hour,,,,,
2023-02-15,wind,84 hour,,,,,
